%YAML 1.1
%TAG !u! tag:unity3d.com,2011:
--- !u!245 &-8584152302150029640
AudioMixerSnapshotController:
  m_ObjectHideFlags: 0
  m_CorrespondingSourceObject: {fileID: 0}
  m_PrefabInstance: {fileID: 0}
  m_PrefabAsset: {fileID: 0}
  m_Name: holder03isMute
  m_AudioMixer: {fileID: 24100000}
  m_SnapshotID: 11f0e87efba38aa4b901d89049345e55
  m_FloatValues:
    f762d19c0e81f514c910583dcea21536: -80
  m_TransitionOverrides: {}
--- !u!241 &24100000
AudioMixerController:
  m_ObjectHideFlags: 0
  m_CorrespondingSourceObject: {fileID: 0}
  m_PrefabInstance: {fileID: 0}
  m_PrefabAsset: {fileID: 0}
  m_Name: Holder03AudioMixer 2
  m_OutputGroup: {fileID: 24300002, guid: 9a6ee79efdff306458c7e340b9c90718, type: 2}
  m_MasterGroup: {fileID: 24300002}
  m_Snapshots:
  - {fileID: -8584152302150029640}
  - {fileID: 24500006}
  m_StartSnapshot: {fileID: -8584152302150029640}
  m_SuspendThreshold: -80
  m_EnableSuspend: 1
  m_UpdateMode: 0
  m_ExposedParameters: []
  m_AudioMixerGroupViews:
  - guids:
    - 50de650ceef30414e989ef2e18a14392
    name: View
  m_CurrentViewIndex: 0
  m_TargetSnapshot: {fileID: -8584152302150029640}
--- !u!243 &24300002
AudioMixerGroupController:
  m_ObjectHideFlags: 0
  m_CorrespondingSourceObject: {fileID: 0}
  m_PrefabInstance: {fileID: 0}
  m_PrefabAsset: {fileID: 0}
  m_Name: Master
  m_AudioMixer: {fileID: 24100000}
  m_GroupID: 50de650ceef30414e989ef2e18a14392
  m_Children: []
  m_Volume: f762d19c0e81f514c910583dcea21536
  m_Pitch: 148c6350dbef3b54bab182f95a0a9345
  m_Send: 00000000000000000000000000000000
  m_Effects:
  - {fileID: 24400004}
  m_UserColorIndex: 0
  m_Mute: 0
  m_Solo: 0
  m_BypassEffects: 0
--- !u!244 &24400004
AudioMixerEffectController:
  m_ObjectHideFlags: 3
  m_CorrespondingSourceObject: {fileID: 0}
  m_PrefabInstance: {fileID: 0}
  m_PrefabAsset: {fileID: 0}
  m_Name: 
  m_EffectID: 97da293cb5ba57b41af6076826f91ddb
  m_EffectName: Attenuation
  m_MixLevel: add12b14ba8275f4bab3449772df045c
  m_Parameters: []
  m_SendTarget: {fileID: 0}
  m_EnableWetMix: 0
  m_Bypass: 0
--- !u!245 &24500006
AudioMixerSnapshotController:
  m_ObjectHideFlags: 0
  m_CorrespondingSourceObject: {fileID: 0}
  m_PrefabInstance: {fileID: 0}
  m_PrefabAsset: {fileID: 0}
  m_Name: holder03isPlaying
  m_AudioMixer: {fileID: 24100000}
  m_SnapshotID: 11660e2e34e8c0c48b513db91b1bf8cb
  m_FloatValues: {}
  m_TransitionOverrides: {}
